Les tweets et leurs réseaux
…
#On calcule les fréquences d'apparition des hashtags
frq <- foo3 %>%
  group_by(hashtag) %>%
  summarise(freq=n()) %>%
  arrange(desc(freq))
frq

## # A tibble: 36,253 x 2
##    hashtag         freq
##    <fct>          <int>
##  1 confinement    40583
##  2 Confinement     8288
##  3 coronavirus     5539
##  4 COVID19         5420
##  5 Covid_19        3048
##  6 Coronavirus     2053
##  7 covid19         1955
##  8 RestezChezVous  1657
##  9 COVID<U+30FC>19       1655
## 10 Covid19         1115
## # ... with 36,243 more rows

#On calcule les cooccurrences entre les hashtags
cooc <- foo3 %>%
  pairwise_count(hashtag, feature = id,sort=T)
cooc

## # A tibble: 598,016 x 3
##    item1       item2           n
##    <fct>       <fct>       <dbl>
##  1 coronavirus confinement  5180
##  2 confinement coronavirus  5180
##  3 COVID19     confinement  4697
##  4 confinement COVID19      4697
##  5 Covid_19    confinement  2661
##  6 confinement Covid_19     2661
##  7 covid19     confinement  1877
##  8 confinement covid19      1877
##  9 COVID<U+30FC>19   confinement  1517
## 10 confinement COVID<U+30FC>19    1517
## # ... with 598,006 more rows
…
